<svg width="14" height="23" viewBox="0 0 14 23" fill="none" xmlns="http://www.w3.org/2000/svg">
<path d="M0.560669 19.5722L8.83696 11.2778L0.560669 2.98345L3.10861 0.435511L13.9509 11.2778L3.10861 22.1201L0.560669 19.5722Z" fill="#282828"/>
</svg>
