<svg width="19" height="19" viewBox="0 0 19 19" fill="none" xmlns="http://www.w3.org/2000/svg">
<path d="M18.2885 6.35518L12.6228 5.53178L10.0901 0.397207C10.021 0.256625 9.90717 0.142821 9.76659 0.0736462C9.41402 -0.100407 8.98558 0.0446373 8.80929 0.397207L6.27659 5.53178L0.610937 6.35518C0.454735 6.3775 0.311922 6.45114 0.202581 6.56271C0.0703936 6.69857 -0.0024477 6.88136 6.28063e-05 7.0709C0.00257331 7.26045 0.0802302 7.44124 0.21597 7.57356L4.31515 11.5701L3.3467 17.2134C3.32399 17.3447 3.33851 17.4797 3.38863 17.6032C3.43875 17.7266 3.52245 17.8335 3.63024 17.9118C3.73804 17.9901 3.86561 18.0366 3.9985 18.0461C4.13139 18.0556 4.26428 18.0276 4.38209 17.9654L9.44972 15.3011L14.5173 17.9654C14.6557 18.0391 14.8164 18.0636 14.9703 18.0368C15.3586 17.9699 15.6197 17.6017 15.5527 17.2134L14.5843 11.5701L18.6835 7.57356C18.795 7.46422 18.8687 7.3214 18.891 7.1652C18.9512 6.7747 18.679 6.4132 18.2885 6.35518Z" fill="#FFCB11"/>
</svg>
